EESchema Schematic File Version 2
LIBS:power
LIBS:device
LIBS:transistors
LIBS:conn
LIBS:linear
LIBS:regul
LIBS:74xx
LIBS:cmos4000
LIBS:adc-dac
LIBS:memory
LIBS:xilinx
LIBS:microcontrollers
LIBS:dsp
LIBS:microchip
LIBS:analog_switches
LIBS:motorola
LIBS:texas
LIBS:intel
LIBS:audio
LIBS:interface
LIBS:digital-audio
LIBS:philips
LIBS:display
LIBS:cypress
LIBS:siliconi
LIBS:opto
LIBS:atmel
LIBS:contrib
LIBS:valves
LIBS:uMIDI-hmi-cache
EELAYER 25 0
EELAYER END
$Descr A4 11693 8268
encoding utf-8
Sheet 1 1
Title ""
Date ""
Rev ""
Comp ""
Comment1 ""
Comment2 ""
Comment3 ""
Comment4 ""
$EndDescr
$Comp
L CONN_02X05 X1
U 1 1 56B65AC3
P 3400 1500
F 0 "X1" H 3400 1800 50  0000 C CNN
F 1 "uMIDI" H 3400 1200 50  0000 C CNN
F 2 "uMIDI:Con-Boxed_header-THT" H 3400 300 60  0001 C CNN
F 3 "" H 3400 300 60  0000 C CNN
	1    3400 1500
	1    0    0    -1  
$EndComp
$Comp
L R R1
U 1 1 56B6640C
P 2050 3650
F 0 "R1" V 2130 3650 50  0000 C CNN
F 1 "100" V 2050 3650 50  0000 C CNN
F 2 "Resistors_SMD:R_1206_HandSoldering" V 1980 3650 30  0001 C CNN
F 3 "" H 2050 3650 30  0000 C CNN
	1    2050 3650
	1    0    0    -1  
$EndComp
$Comp
L LED D1
U 1 1 56B656FA
P 2050 3200
F 0 "D1" H 2050 3300 50  0000 C CNN
F 1 "LED" H 2050 3100 50  0000 C CNN
F 2 "LEDs:LED_1206" H 2050 3200 60  0001 C CNN
F 3 "" H 2050 3200 60  0000 C CNN
	1    2050 3200
	0    -1   -1   0   
$EndComp
$Comp
L GND #PWR01
U 1 1 56B67813
P 2050 3900
F 0 "#PWR01" H 2050 3650 50  0001 C CNN
F 1 "GND" H 2050 3750 50  0000 C CNN
F 2 "" H 2050 3900 60  0000 C CNN
F 3 "" H 2050 3900 60  0000 C CNN
	1    2050 3900
	1    0    0    -1  
$EndComp
$Comp
L GND #PWR02
U 1 1 56B67B66
P 3750 1800
F 0 "#PWR02" H 3750 1550 50  0001 C CNN
F 1 "GND" H 3750 1650 50  0000 C CNN
F 2 "" H 3750 1800 60  0000 C CNN
F 3 "" H 3750 1800 60  0000 C CNN
	1    3750 1800
	1    0    0    -1  
$EndComp
NoConn ~ 3150 1300
$Comp
L CONN_02X05 X2
U 1 1 56B68A48
P 7200 1600
F 0 "X2" H 7200 1900 50  0000 C CNN
F 1 "uMIDI" H 7200 1300 50  0000 C CNN
F 2 "uMIDI:Con-Boxed_header-THT" H 7200 400 60  0001 C CNN
F 3 "" H 7200 400 60  0000 C CNN
	1    7200 1600
	1    0    0    -1  
$EndComp
$Comp
L GND #PWR03
U 1 1 56B68A4E
P 7550 1900
F 0 "#PWR03" H 7550 1650 50  0001 C CNN
F 1 "GND" H 7550 1750 50  0000 C CNN
F 2 "" H 7550 1900 60  0000 C CNN
F 3 "" H 7550 1900 60  0000 C CNN
	1    7550 1900
	1    0    0    -1  
$EndComp
NoConn ~ 6950 1400
$Comp
L GND #PWR04
U 1 1 56B6967A
P 8100 3650
F 0 "#PWR04" H 8100 3400 50  0001 C CNN
F 1 "GND" H 8100 3500 50  0000 C CNN
F 2 "" H 8100 3650 60  0000 C CNN
F 3 "" H 8100 3650 60  0000 C CNN
	1    8100 3650
	1    0    0    -1  
$EndComp
Text Label 7800 3100 0    60   ~ 0
Enc1A
Text Label 7800 3300 0    60   ~ 0
Enc1B
Text Label 9250 3100 0    60   ~ 0
Enc1SW
Text Label 7700 1500 0    60   ~ 0
Enc2B
Text Label 7700 1600 0    60   ~ 0
Enc2A
Text Label 7700 1700 0    60   ~ 0
SW2
Text Label 6500 1500 0    60   ~ 0
Enc1SW
Text Label 6500 1600 0    60   ~ 0
Enc1A
Text Label 6500 1700 0    60   ~ 0
Enc1B
Wire Wire Line
	2050 3500 2050 3400
Wire Wire Line
	2050 3900 2050 3800
Wire Wire Line
	3750 1800 3750 1700
Wire Wire Line
	3750 1700 3650 1700
Wire Wire Line
	7550 1900 7550 1800
Wire Wire Line
	7550 1800 7450 1800
Wire Wire Line
	8100 3200 8100 3650
Wire Wire Line
	8100 3500 9150 3500
Wire Wire Line
	7800 3100 8200 3100
Wire Wire Line
	8200 3300 7800 3300
Wire Wire Line
	8200 3200 8100 3200
Connection ~ 8100 3500
Wire Wire Line
	9000 3100 9250 3100
Wire Wire Line
	7450 1400 7700 1400
Wire Wire Line
	7450 1500 7700 1500
Wire Wire Line
	7450 1600 7700 1600
Wire Wire Line
	7450 1700 7700 1700
Wire Wire Line
	6950 1800 6500 1800
Wire Wire Line
	6950 1600 6500 1600
Wire Wire Line
	6950 1500 6500 1500
Wire Wire Line
	6500 1700 6950 1700
Text Label 6200 3000 0    60   ~ 0
SW1
Wire Wire Line
	6200 3000 6400 3000
Wire Wire Line
	7100 3000 7000 3000
Wire Wire Line
	7100 3100 7100 3000
$Comp
L GND #PWR05
U 1 1 56B6A903
P 7100 3100
F 0 "#PWR05" H 7100 2850 50  0001 C CNN
F 1 "GND" H 7100 2950 50  0000 C CNN
F 2 "" H 7100 3100 60  0000 C CNN
F 3 "" H 7100 3100 60  0000 C CNN
	1    7100 3100
	1    0    0    -1  
$EndComp
$Comp
L SW_PUSH SW1
U 1 1 56B662DA
P 6700 3000
F 0 "SW1" H 6850 3110 50  0000 C CNN
F 1 "SW_PUSH" H 6700 2920 50  0000 C CNN
F 2 "uMIDI:Mech-Switch-17x9.5mm-SMD" H 6700 3000 60  0001 C CNN
F 3 "http://www.schurter.de/var/schurter/storage/ilcatalogue/files/document/datasheet/en/pdf/typ_SMS.pdf" H 6700 3000 60  0001 C CNN
F 4 "https://www.reichelt.de/Kurzhubtaster/TASTER-1612-11/3/index.html?&ACTION=3&LA=2&ARTICLE=44474&GROUPID=3278&artnr=TASTER+1612.11" H 6850 3110 50  0001 C CNN "Supplier Link"
F 5 "TASTER 1612.11" H 6850 3110 50  0001 C CNN "Supplier Part Number"
F 6 "1241.1612.11" H 6850 3110 50  0001 C CNN "Manufacturer Part Number"
F 7 "Reichelt" H 6850 3110 50  0001 C CNN "Supplier"
F 8 "Schurter" H 6850 3110 50  0001 C CNN "Manufacturer"
	1    6700 3000
	1    0    0    -1  
$EndComp
Text Label 6200 3550 0    60   ~ 0
SW2
Wire Wire Line
	6200 3550 6400 3550
Wire Wire Line
	7100 3550 7000 3550
Wire Wire Line
	7100 3650 7100 3550
$Comp
L GND #PWR06
U 1 1 56B6ACC5
P 7100 3650
F 0 "#PWR06" H 7100 3400 50  0001 C CNN
F 1 "GND" H 7100 3500 50  0000 C CNN
F 2 "" H 7100 3650 60  0000 C CNN
F 3 "" H 7100 3650 60  0000 C CNN
	1    7100 3650
	1    0    0    -1  
$EndComp
$Comp
L SW_PUSH SW2
U 1 1 56B6ACCB
P 6700 3550
F 0 "SW2" H 6850 3660 50  0000 C CNN
F 1 "SW_PUSH" H 6700 3470 50  0000 C CNN
F 2 "uMIDI:Mech-Switch-17x9.5mm-SMD" H 6700 3550 60  0001 C CNN
F 3 "http://www.schurter.de/var/schurter/storage/ilcatalogue/files/document/datasheet/en/pdf/typ_SMS.pdf" H 6700 3550 60  0001 C CNN
F 4 "https://www.reichelt.de/Kurzhubtaster/TASTER-1612-11/3/index.html?&ACTION=3&LA=2&ARTICLE=44474&GROUPID=3278&artnr=TASTER+1612.11" H 6850 3660 50  0001 C CNN "Supplier Link"
F 5 "TASTER 1612.11" H 6850 3660 50  0001 C CNN "Supplier Part Number"
F 6 "1241.1612.11" H 6850 3660 50  0001 C CNN "Manufacturer Part Number"
F 7 "Reichelt" H 6850 3660 50  0001 C CNN "Supplier"
F 8 "Schurter" H 6850 3660 50  0001 C CNN "Manufacturer"
	1    6700 3550
	1    0    0    -1  
$EndComp
Text Label 7700 1400 0    60   ~ 0
Enc2SW
Text Label 6500 1800 0    60   ~ 0
SW1
Wire Wire Line
	3650 1300 3850 1300
Wire Wire Line
	3650 1400 3850 1400
Wire Wire Line
	3650 1500 3850 1500
Wire Wire Line
	3850 1600 3650 1600
Wire Wire Line
	3150 1400 2850 1400
Wire Wire Line
	2850 1500 3150 1500
Wire Wire Line
	2850 1600 3150 1600
Wire Wire Line
	2850 1700 3150 1700
Text Label 3850 1300 0    60   ~ 0
LED8
Text Label 3850 1400 0    60   ~ 0
LED7
Text Label 3850 1500 0    60   ~ 0
LED6
Text Label 3850 1600 0    60   ~ 0
LED5
Text Label 2850 1400 0    60   ~ 0
LED1
Text Label 2850 1500 0    60   ~ 0
LED2
Text Label 2850 1600 0    60   ~ 0
LED3
Text Label 2850 1700 0    60   ~ 0
LED4
Wire Wire Line
	2050 2750 2050 3000
Text Label 2050 2750 0    60   ~ 0
LED1
$Comp
L R R2
U 1 1 56B6C15C
P 2450 3650
F 0 "R2" V 2530 3650 50  0000 C CNN
F 1 "100" V 2450 3650 50  0000 C CNN
F 2 "Resistors_SMD:R_1206_HandSoldering" V 2380 3650 30  0001 C CNN
F 3 "" H 2450 3650 30  0000 C CNN
	1    2450 3650
	1    0    0    -1  
$EndComp
$Comp
L LED D2
U 1 1 56B6C162
P 2450 3200
F 0 "D2" H 2450 3300 50  0000 C CNN
F 1 "LED" H 2450 3100 50  0000 C CNN
F 2 "LEDs:LED_1206" H 2450 3200 60  0001 C CNN
F 3 "" H 2450 3200 60  0000 C CNN
	1    2450 3200
	0    -1   -1   0   
$EndComp
$Comp
L GND #PWR07
U 1 1 56B6C168
P 2450 3900
F 0 "#PWR07" H 2450 3650 50  0001 C CNN
F 1 "GND" H 2450 3750 50  0000 C CNN
F 2 "" H 2450 3900 60  0000 C CNN
F 3 "" H 2450 3900 60  0000 C CNN
	1    2450 3900
	1    0    0    -1  
$EndComp
Wire Wire Line
	2450 3500 2450 3400
Wire Wire Line
	2450 3900 2450 3800
Wire Wire Line
	2450 2750 2450 3000
Text Label 2450 2750 0    60   ~ 0
LED2
$Comp
L R R3
U 1 1 56B6C27C
P 2850 3650
F 0 "R3" V 2930 3650 50  0000 C CNN
F 1 "100" V 2850 3650 50  0000 C CNN
F 2 "Resistors_SMD:R_1206_HandSoldering" V 2780 3650 30  0001 C CNN
F 3 "" H 2850 3650 30  0000 C CNN
	1    2850 3650
	1    0    0    -1  
$EndComp
$Comp
L LED D3
U 1 1 56B6C282
P 2850 3200
F 0 "D3" H 2850 3300 50  0000 C CNN
F 1 "LED" H 2850 3100 50  0000 C CNN
F 2 "LEDs:LED_1206" H 2850 3200 60  0001 C CNN
F 3 "" H 2850 3200 60  0000 C CNN
	1    2850 3200
	0    -1   -1   0   
$EndComp
$Comp
L GND #PWR08
U 1 1 56B6C288
P 2850 3900
F 0 "#PWR08" H 2850 3650 50  0001 C CNN
F 1 "GND" H 2850 3750 50  0000 C CNN
F 2 "" H 2850 3900 60  0000 C CNN
F 3 "" H 2850 3900 60  0000 C CNN
	1    2850 3900
	1    0    0    -1  
$EndComp
Wire Wire Line
	2850 3500 2850 3400
Wire Wire Line
	2850 3900 2850 3800
Wire Wire Line
	2850 2750 2850 3000
Text Label 2850 2750 0    60   ~ 0
LED3
$Comp
L R R4
U 1 1 56B6C292
P 3250 3650
F 0 "R4" V 3330 3650 50  0000 C CNN
F 1 "100" V 3250 3650 50  0000 C CNN
F 2 "Resistors_SMD:R_1206_HandSoldering" V 3180 3650 30  0001 C CNN
F 3 "" H 3250 3650 30  0000 C CNN
	1    3250 3650
	1    0    0    -1  
$EndComp
$Comp
L LED D4
U 1 1 56B6C298
P 3250 3200
F 0 "D4" H 3250 3300 50  0000 C CNN
F 1 "LED" H 3250 3100 50  0000 C CNN
F 2 "LEDs:LED_1206" H 3250 3200 60  0001 C CNN
F 3 "" H 3250 3200 60  0000 C CNN
	1    3250 3200
	0    -1   -1   0   
$EndComp
$Comp
L GND #PWR09
U 1 1 56B6C29E
P 3250 3900
F 0 "#PWR09" H 3250 3650 50  0001 C CNN
F 1 "GND" H 3250 3750 50  0000 C CNN
F 2 "" H 3250 3900 60  0000 C CNN
F 3 "" H 3250 3900 60  0000 C CNN
	1    3250 3900
	1    0    0    -1  
$EndComp
Wire Wire Line
	3250 3500 3250 3400
Wire Wire Line
	3250 3900 3250 3800
Wire Wire Line
	3250 2750 3250 3000
Text Label 3250 2750 0    60   ~ 0
LED4
$Comp
L R R5
U 1 1 56B6C4D6
P 3650 3650
F 0 "R5" V 3730 3650 50  0000 C CNN
F 1 "100" V 3650 3650 50  0000 C CNN
F 2 "Resistors_SMD:R_1206_HandSoldering" V 3580 3650 30  0001 C CNN
F 3 "" H 3650 3650 30  0000 C CNN
	1    3650 3650
	1    0    0    -1  
$EndComp
$Comp
L LED D5
U 1 1 56B6C4DC
P 3650 3200
F 0 "D5" H 3650 3300 50  0000 C CNN
F 1 "LED" H 3650 3100 50  0000 C CNN
F 2 "LEDs:LED_1206" H 3650 3200 60  0001 C CNN
F 3 "" H 3650 3200 60  0000 C CNN
	1    3650 3200
	0    -1   -1   0   
$EndComp
$Comp
L GND #PWR010
U 1 1 56B6C4E2
P 3650 3900
F 0 "#PWR010" H 3650 3650 50  0001 C CNN
F 1 "GND" H 3650 3750 50  0000 C CNN
F 2 "" H 3650 3900 60  0000 C CNN
F 3 "" H 3650 3900 60  0000 C CNN
	1    3650 3900
	1    0    0    -1  
$EndComp
Wire Wire Line
	3650 3500 3650 3400
Wire Wire Line
	3650 3900 3650 3800
Wire Wire Line
	3650 2750 3650 3000
Text Label 3650 2750 0    60   ~ 0
LED5
$Comp
L R R6
U 1 1 56B6C4EC
P 4050 3650
F 0 "R6" V 4130 3650 50  0000 C CNN
F 1 "100" V 4050 3650 50  0000 C CNN
F 2 "Resistors_SMD:R_1206_HandSoldering" V 3980 3650 30  0001 C CNN
F 3 "" H 4050 3650 30  0000 C CNN
	1    4050 3650
	1    0    0    -1  
$EndComp
$Comp
L LED D6
U 1 1 56B6C4F2
P 4050 3200
F 0 "D6" H 4050 3300 50  0000 C CNN
F 1 "LED" H 4050 3100 50  0000 C CNN
F 2 "LEDs:LED_1206" H 4050 3200 60  0001 C CNN
F 3 "" H 4050 3200 60  0000 C CNN
	1    4050 3200
	0    -1   -1   0   
$EndComp
$Comp
L GND #PWR011
U 1 1 56B6C4F8
P 4050 3900
F 0 "#PWR011" H 4050 3650 50  0001 C CNN
F 1 "GND" H 4050 3750 50  0000 C CNN
F 2 "" H 4050 3900 60  0000 C CNN
F 3 "" H 4050 3900 60  0000 C CNN
	1    4050 3900
	1    0    0    -1  
$EndComp
Wire Wire Line
	4050 3500 4050 3400
Wire Wire Line
	4050 3900 4050 3800
Wire Wire Line
	4050 2750 4050 3000
Text Label 4050 2750 0    60   ~ 0
LED6
$Comp
L R R7
U 1 1 56B6C502
P 4450 3650
F 0 "R7" V 4530 3650 50  0000 C CNN
F 1 "100" V 4450 3650 50  0000 C CNN
F 2 "Resistors_SMD:R_1206_HandSoldering" V 4380 3650 30  0001 C CNN
F 3 "" H 4450 3650 30  0000 C CNN
	1    4450 3650
	1    0    0    -1  
$EndComp
$Comp
L LED D7
U 1 1 56B6C508
P 4450 3200
F 0 "D7" H 4450 3300 50  0000 C CNN
F 1 "LED" H 4450 3100 50  0000 C CNN
F 2 "LEDs:LED_1206" H 4450 3200 60  0001 C CNN
F 3 "" H 4450 3200 60  0000 C CNN
	1    4450 3200
	0    -1   -1   0   
$EndComp
$Comp
L GND #PWR012
U 1 1 56B6C50E
P 4450 3900
F 0 "#PWR012" H 4450 3650 50  0001 C CNN
F 1 "GND" H 4450 3750 50  0000 C CNN
F 2 "" H 4450 3900 60  0000 C CNN
F 3 "" H 4450 3900 60  0000 C CNN
	1    4450 3900
	1    0    0    -1  
$EndComp
Wire Wire Line
	4450 3500 4450 3400
Wire Wire Line
	4450 3900 4450 3800
Wire Wire Line
	4450 2750 4450 3000
Text Label 4450 2750 0    60   ~ 0
LED7
$Comp
L R R8
U 1 1 56B6C518
P 4850 3650
F 0 "R8" V 4930 3650 50  0000 C CNN
F 1 "100" V 4850 3650 50  0000 C CNN
F 2 "Resistors_SMD:R_1206_HandSoldering" V 4780 3650 30  0001 C CNN
F 3 "" H 4850 3650 30  0000 C CNN
	1    4850 3650
	1    0    0    -1  
$EndComp
$Comp
L LED D8
U 1 1 56B6C51E
P 4850 3200
F 0 "D8" H 4850 3300 50  0000 C CNN
F 1 "LED" H 4850 3100 50  0000 C CNN
F 2 "LEDs:LED_1206" H 4850 3200 60  0001 C CNN
F 3 "" H 4850 3200 60  0000 C CNN
	1    4850 3200
	0    -1   -1   0   
$EndComp
$Comp
L GND #PWR013
U 1 1 56B6C524
P 4850 3900
F 0 "#PWR013" H 4850 3650 50  0001 C CNN
F 1 "GND" H 4850 3750 50  0000 C CNN
F 2 "" H 4850 3900 60  0000 C CNN
F 3 "" H 4850 3900 60  0000 C CNN
	1    4850 3900
	1    0    0    -1  
$EndComp
Wire Wire Line
	4850 3500 4850 3400
Wire Wire Line
	4850 3900 4850 3800
Wire Wire Line
	4850 2750 4850 3000
Text Label 4850 2750 0    60   ~ 0
LED8
$Comp
L PWR_FLAG #FLG014
U 1 1 56B6E227
P 6300 7150
F 0 "#FLG014" H 6300 7245 50  0001 C CNN
F 1 "PWR_FLAG" H 6300 7330 50  0000 C CNN
F 2 "" H 6300 7150 60  0000 C CNN
F 3 "" H 6300 7150 60  0000 C CNN
	1    6300 7150
	1    0    0    -1  
$EndComp
$Comp
L GND #PWR015
U 1 1 56B6E291
P 6300 7150
F 0 "#PWR015" H 6300 6900 50  0001 C CNN
F 1 "GND" H 6300 7000 50  0000 C CNN
F 2 "" H 6300 7150 60  0000 C CNN
F 3 "" H 6300 7150 60  0000 C CNN
	1    6300 7150
	1    0    0    -1  
$EndComp
$Comp
L ALPS-EC12 E1
U 1 1 56C0B779
P 8600 3200
F 0 "E1" V 8250 3000 60  0000 L CNN
F 1 "ALPS-EC12" V 8950 2950 60  0000 L CNN
F 2 "uMIDI:ALPS-EC12-topmount" H 8600 3200 60  0001 C CNN
F 3 "http://cdn-reichelt.de/documents/datenblatt/F100/402097STEC12E08.PDF" H 8400 4500 60  0001 C CNN
F 4 "https://www.reichelt.de/Drehimpulsgeber/STEC12E08/3/index.html?&ACTION=3&LA=2&ARTICLE=73923&GROUPID=3714&artnr=STEC12E08&SEARCH=Drehimpulsgeber" H 8550 4304 60  0001 C CNN "Supplier Link"
F 5 "STEC12E08" H 8550 4304 60  0001 C CNN "Supplier Part Number"
F 6 "Reichelt" H 8550 4304 60  0001 C CNN "Supplier"
F 7 "ALPS" H 8550 4304 60  0001 C CNN "Manufacturer"
	1    8600 3200
	0    1    1    0   
$EndComp
Wire Wire Line
	9150 3500 9150 3300
Wire Wire Line
	9150 3300 9000 3300
$Comp
L GND #PWR016
U 1 1 56C0D147
P 8100 5200
F 0 "#PWR016" H 8100 4950 50  0001 C CNN
F 1 "GND" H 8100 5050 50  0000 C CNN
F 2 "" H 8100 5200 60  0000 C CNN
F 3 "" H 8100 5200 60  0000 C CNN
	1    8100 5200
	1    0    0    -1  
$EndComp
Text Label 7800 4650 0    60   ~ 0
Enc2A
Text Label 7800 4850 0    60   ~ 0
Enc2B
Text Label 9250 4650 0    60   ~ 0
Enc2SW
Wire Wire Line
	8100 4750 8100 5200
Wire Wire Line
	8100 5050 9150 5050
Wire Wire Line
	7800 4650 8200 4650
Wire Wire Line
	8200 4850 7800 4850
Wire Wire Line
	8200 4750 8100 4750
Connection ~ 8100 5050
Wire Wire Line
	9000 4650 9250 4650
$Comp
L ALPS-EC12 E2
U 1 1 56C0D15B
P 8600 4750
F 0 "E2" V 8250 4550 60  0000 L CNN
F 1 "ALPS-EC12" V 8950 4500 60  0000 L CNN
F 2 "uMIDI:ALPS-EC12-topmount" H 8600 4750 60  0001 C CNN
F 3 "http://cdn-reichelt.de/documents/datenblatt/F100/402097STEC12E08.PDF" H 8400 6050 60  0001 C CNN
F 4 "https://www.reichelt.de/Drehimpulsgeber/STEC12E08/3/index.html?&ACTION=3&LA=2&ARTICLE=73923&GROUPID=3714&artnr=STEC12E08&SEARCH=Drehimpulsgeber" H 8550 5854 60  0001 C CNN "Supplier Link"
F 5 "STEC12E08" H 8550 5854 60  0001 C CNN "Supplier Part Number"
F 6 "Reichelt" H 8550 5854 60  0001 C CNN "Supplier"
F 7 "ALPS" H 8550 5854 60  0001 C CNN "Manufacturer"
	1    8600 4750
	0    1    1    0   
$EndComp
Wire Wire Line
	9150 5050 9150 4850
Wire Wire Line
	9150 4850 9000 4850
$Comp
L GND #PWR017
U 1 1 56C25F95
P 8600 3650
F 0 "#PWR017" H 8600 3400 50  0001 C CNN
F 1 "GND" H 8600 3500 50  0000 C CNN
F 2 "" H 8600 3650 60  0000 C CNN
F 3 "" H 8600 3650 60  0000 C CNN
	1    8600 3650
	1    0    0    -1  
$EndComp
$Comp
L GND #PWR018
U 1 1 56C260C1
P 8800 2750
F 0 "#PWR018" H 8800 2500 50  0001 C CNN
F 1 "GND" H 8800 2600 50  0000 C CNN
F 2 "" H 8800 2750 60  0000 C CNN
F 3 "" H 8800 2750 60  0000 C CNN
	1    8800 2750
	1    0    0    -1  
$EndComp
$Comp
L GND #PWR019
U 1 1 56C2610E
P 8600 5200
F 0 "#PWR019" H 8600 4950 50  0001 C CNN
F 1 "GND" H 8600 5050 50  0000 C CNN
F 2 "" H 8600 5200 60  0000 C CNN
F 3 "" H 8600 5200 60  0000 C CNN
	1    8600 5200
	1    0    0    -1  
$EndComp
$Comp
L GND #PWR020
U 1 1 56C2615B
P 8800 4300
F 0 "#PWR020" H 8800 4050 50  0001 C CNN
F 1 "GND" H 8800 4150 50  0000 C CNN
F 2 "" H 8800 4300 60  0000 C CNN
F 3 "" H 8800 4300 60  0000 C CNN
	1    8800 4300
	1    0    0    -1  
$EndComp
Wire Wire Line
	8600 4300 8600 4200
Wire Wire Line
	8600 4200 8800 4200
Wire Wire Line
	8800 4200 8800 4300
Wire Wire Line
	8800 2750 8800 2650
Wire Wire Line
	8800 2650 8600 2650
Wire Wire Line
	8600 2650 8600 2750
$EndSCHEMATC
